pipeline {
   agent any

   stages {
      stage('SCM') {
         steps {
            cleanWs()
            git branch: 'master', url: 'https://gitlab.com/skavuruGH/devops-assesment.git'
            unzip dir: '/home/workspace', glob: '', zipFile: 'TEST.zip'
            sh 'perl print_min_max_strings.pl  The cow jumped over the moon >test.txt '
            sh 'echo test.txt'
            
            }
                 
         }
         
      }
   }
